…
## How many distinct stations are there?

``` r
nyc_transit_df %>% 
  select(station_name, line) %>% 
  distinct
```

    ## # A tibble: 465 × 2
    ##    station_name             line    
    ##    <chr>                    <chr>   
    ##  1 25th St                  4 Avenue
    ##  2 36th St                  4 Avenue
    ##  3 45th St                  4 Avenue
    ##  4 53rd St                  4 Avenue
    ##  5 59th St                  4 Avenue
    ##  6 77th St                  4 Avenue
    ##  7 86th St                  4 Avenue
    ##  8 95th St                  4 Avenue
    ##  9 9th St                   4 Avenue
    ## 10 Atlantic Av-Barclays Ctr 4 Avenue
    ## # … with 455 more rows

There are 465 distinct stations.

## How many stations are ADA compliant?

``` r
nyc_transit_df %>% 
  filter(ada == TRUE) %>%
  select(station_name, line) %>% 
  distinct 
```

    ## # A tibble: 84 × 2
    ##    station_name                   line           
    ##    <chr>                          <chr>          
    ##  1 Atlantic Av-Barclays Ctr       4 Avenue       
    ##  2 DeKalb Av                      4 Avenue       
    ##  3 Pacific St                     4 Avenue       
    ##  4 Grand Central                  42nd St Shuttle
    ##  5 34th St                        6 Avenue       
    ##  6 47-50th Sts Rockefeller Center 6 Avenue       
    ##  7 Church Av                      6 Avenue       
    ##  8 21st St                        63rd Street    
    ##  9 Lexington Av                   63rd Street    
    ## 10 Roosevelt Island               63rd Street    
    ## # … with 74 more rows
…
## How many distinct stations serve the A train? Of the stations that serve the A train, how many are ADA compliant?

``` r
nyc_transit_df %>% 
  pivot_longer(
    route1:route11,
    names_to = "route_number",
    values_to = "route") %>% 
  filter(route == "A") %>% 
  select(station_name, line) %>% 
  distinct
```

    ## # A tibble: 60 × 2
    ##    station_name                  line           
    ##    <chr>                         <chr>          
    ##  1 Times Square                  42nd St Shuttle
    ##  2 125th St                      8 Avenue       
    ##  3 145th St                      8 Avenue       
    ##  4 14th St                       8 Avenue       
    ##  5 168th St - Washington Heights 8 Avenue       
    ##  6 175th St                      8 Avenue       
    ##  7 181st St                      8 Avenue       
    ##  8 190th St                      8 Avenue       
    ##  9 34th St                       8 Avenue       
    ## 10 42nd St                       8 Avenue       
    ## # … with 50 more rows
…
Read and clean the Mr.Trash Wheel sheet.

``` r
mr_trash_df = 
  read_excel("./Trash Wheel Collection Data.xlsx", sheet = 1, range = "A2:N550") %>%
  janitor::clean_names() %>%
  drop_na(dumpster) %>% 
  mutate(sports_balls = as.integer(round(sports_balls, 0))) %>%
  mutate(year = as.numeric(year)) %>%
  mutate(trash_wheel = "Mr")
mr_trash_df
```

    ## # A tibble: 547 × 15
    ##    dumpster month  year date                weight_tons volume…¹ plast…² polys…³
    ##       <dbl> <chr> <dbl> <dttm>                    <dbl>    <dbl>   <dbl>   <dbl>
    ##  1        1 May    2014 2014-05-16 00:00:00        4.31       18    1450    1820
    ##  2        2 May    2014 2014-05-16 00:00:00        2.74       13    1120    1030
    ##  3        3 May    2014 2014-05-16 00:00:00        3.45       15    2450    3100
    ##  4        4 May    2014 2014-05-17 00:00:00        3.1        15    2380    2730
    ##  5        5 May    2014 2014-05-17 00:00:00        4.06       18     980     870
    ##  6        6 May    2014 2014-05-20 00:00:00        2.71       13    1430    2140
    ##  7        7 May    2014 2014-05-21 00:00:00        1.91        8     910    1090
    ##  8        8 May    2014 2014-05-28 00:00:00        3.7        16    3580    4310
    ##  9        9 June   2014 2014-06-05 00:00:00        2.52       14    2400    2790
    ## 10       10 June   2014 2014-06-11 00:00:00        3.76       18    1340    1730
    ## # … with 537 more rows, 7 more variables: cigarette_butts <dbl>,
    ## #   glass_bottles <dbl>, grocery_bags <dbl>, chip_bags <dbl>,
    ## #   sports_balls <int>, homes_powered <dbl>, trash_wheel <chr>, and abbreviated
    ## #   variable names ¹​volume_cubic_yards, ²​plastic_bottles, ³​polystyrene

Use a similar process to import, clean, and organize the data for
Professor Trash Wheel. Combine this with the Mr. Trash Wheel dataset to
produce a single tidy dataset.

``` r
professor_trash_df = 
  read_excel("./Trash Wheel Collection Data.xlsx", sheet = 2, range = "A2:M97") %>%
  janitor::clean_names() %>%
  drop_na(dumpster) %>%
  mutate(trash_wheel = "Professor")
professor_trash_df
```

    ## # A tibble: 94 × 14
    ##    dumpster month     year date                weight_…¹ volum…² plast…³ polys…⁴
    ##       <dbl> <chr>    <dbl> <dttm>                  <dbl>   <dbl>   <dbl>   <dbl>
    ##  1        1 January   2017 2017-01-02 00:00:00      1.79      15    1950    6080
    ##  2        2 January   2017 2017-01-30 00:00:00      1.58      15    9540   11230
    ##  3        3 February  2017 2017-02-26 00:00:00      2.32      18    8350    9210
    ##  4        4 February  2017 2017-02-26 00:00:00      3.72      15    8590    1030
    ##  5        5 February  2017 2017-02-28 00:00:00      1.45      15    7830    9950
    ##  6        6 March     2017 2017-03-30 00:00:00      1.71      15    8210   10340
    ##  7        7 April     2017 2017-04-01 00:00:00      1.82      15    9830   11020
    ##  8        8 April     2017 2017-04-20 00:00:00      2.37      15    9240    8760
    ##  9        9 May       2017 2017-05-10 00:00:00      2.64      15    9540    8810
    ## 10       10 May       2017 2017-05-26 00:00:00      2.78      15    8230    7800
    ## # … with 84 more rows, 6 more variables: cigarette_butts <dbl>,
    ## #   glass_bottles <dbl>, grocery_bags <dbl>, chip_bags <dbl>,
    ## #   homes_powered <dbl>, trash_wheel <chr>, and abbreviated variable names
    ## #   ¹​weight_tons, ²​volume_cubic_yards, ³​plastic_bottles, ⁴​polystyrene

``` r
trash_wheel_tidy = 
  bind_rows(mr_trash_df, professor_trash_df) %>%
  relocate(trash_wheel, dumpster)
trash_wheel_tidy
```

    ## # A tibble: 641 × 15
    ##    trash_wheel dumpster month  year date                weight…¹ volum…² plast…³
    ##    <chr>          <dbl> <chr> <dbl> <dttm>                 <dbl>   <dbl>   <dbl>
    ##  1 Mr                 1 May    2014 2014-05-16 00:00:00     4.31      18    1450
    ##  2 Mr                 2 May    2014 2014-05-16 00:00:00     2.74      13    1120
    ##  3 Mr                 3 May    2014 2014-05-16 00:00:00     3.45      15    2450
    ##  4 Mr                 4 May    2014 2014-05-17 00:00:00     3.1       15    2380
    ##  5 Mr                 5 May    2014 2014-05-17 00:00:00     4.06      18     980
    ##  6 Mr                 6 May    2014 2014-05-20 00:00:00     2.71      13    1430
    ##  7 Mr                 7 May    2014 2014-05-21 00:00:00     1.91       8     910
    ##  8 Mr                 8 May    2014 2014-05-28 00:00:00     3.7       16    3580
    ##  9 Mr                 9 June   2014 2014-06-05 00:00:00     2.52      14    2400
    ## 10 Mr                10 June   2014 2014-06-11 00:00:00     3.76      18    1340
    ## # … with 631 more rows, 7 more variables: polystyrene <dbl>,
    ## #   cigarette_butts <dbl>, glass_bottles <dbl>, grocery_bags <dbl>,
    ## #   chip_bags <dbl>, sports_balls <int>, homes_powered <dbl>, and abbreviated
    ## #   variable names ¹​weight_tons, ²​volume_cubic_yards, ³​plastic_bottles
…
Load and clean the data in pols-month.csv.

``` r
pols_month = 
  read_csv("./pols-month.csv") %>%
  separate(mon, into = c("year", "month", "day")) %>%
  mutate(year = as.numeric(year),
         month = month.name[as.numeric(month)], 
         president = recode(prez_dem, `0` = "gop", `1` = "dem")) %>%
  select(-day, -prez_dem, -prez_gop)
pols_month
```

    ## # A tibble: 822 × 9
    ##     year month     gov_gop sen_gop rep_gop gov_dem sen_dem rep_dem president
    ##    <dbl> <chr>       <dbl>   <dbl>   <dbl>   <dbl>   <dbl>   <dbl> <chr>    
    ##  1  1947 January        23      51     253      23      45     198 dem      
    ##  2  1947 February       23      51     253      23      45     198 dem      
    ##  3  1947 March          23      51     253      23      45     198 dem      
    ##  4  1947 April          23      51     253      23      45     198 dem      
    ##  5  1947 May            23      51     253      23      45     198 dem      
    ##  6  1947 June           23      51     253      23      45     198 dem      
    ##  7  1947 July           23      51     253      23      45     198 dem      
    ##  8  1947 August         23      51     253      23      45     198 dem      
    ##  9  1947 September      23      51     253      23      45     198 dem      
    ## 10  1947 October        23      51     253      23      45     198 dem      
    ## # … with 812 more rows
Load and clean the data in snp.csv using a similar process to the above.

``` r
snp = 
  read_csv("./snp.csv") %>%
  mutate(date = mdy(date)) %>%
  separate(date, into = c("year", "month", "day")) %>%
  mutate(year = as.numeric(year),
         month = month.name[as.numeric(month)]) %>%
  select(-day) %>%
  arrange(year, month)
snp
```

    ## # A tibble: 787 × 3
    ##     year month    close
    ##    <dbl> <chr>    <dbl>
    ##  1  1969 April    104. 
    ##  2  1969 August    95.5
    ##  3  1969 December  92.1
    ##  4  1969 February  98.1
    ##  5  1969 January  103. 
    ##  6  1969 July      91.8
    ##  7  1969 June      97.7
    ##  8  1969 March    102. 
    ##  9  1969 May      103. 
    ## 10  1969 November  93.8
    ## # … with 777 more rows
…
``` r
unemployment = 
  read_csv("./unemployment.csv") %>%
  pivot_longer(
    Jan:Dec, 
    names_to = "month",
    values_to = "percentage") %>%
  mutate(month = match(month,month.abb),
         month = month.name[as.numeric(month)]) %>%
  janitor::clean_names()
unemployment  
```

    ## # A tibble: 816 × 3
    ##     year month     percentage
    ##    <dbl> <chr>          <dbl>
    ##  1  1948 January          3.4
    ##  2  1948 February         3.8
    ##  3  1948 March            4  
    ##  4  1948 April            3.9
    ##  5  1948 May              3.5
    ##  6  1948 June             3.6
    ##  7  1948 July             3.6
    ##  8  1948 August           3.9
    ##  9  1948 September        3.8
    ## 10  1948 October          3.7
    ## # … with 806 more rows

Join the datasets by merging snp into pols, and merging unemployment
into the result.

``` r
merge_pols_snp = 
  left_join(pols_month, snp, by = c("year", "month"))
merge_pols_snp
```

    ## # A tibble: 822 × 10
    ##     year month     gov_gop sen_gop rep_gop gov_dem sen_dem rep_dem presi…¹ close
    ##    <dbl> <chr>       <dbl>   <dbl>   <dbl>   <dbl>   <dbl>   <dbl> <chr>   <dbl>
    ##  1  1947 January        23      51     253      23      45     198 dem        NA
    ##  2  1947 February       23      51     253      23      45     198 dem        NA
    ##  3  1947 March          23      51     253      23      45     198 dem        NA
    ##  4  1947 April          23      51     253      23      45     198 dem        NA
    ##  5  1947 May            23      51     253      23      45     198 dem        NA
    ##  6  1947 June           23      51     253      23      45     198 dem        NA
    ##  7  1947 July           23      51     253      23      45     198 dem        NA
    ##  8  1947 August         23      51     253      23      45     198 dem        NA
    ##  9  1947 September      23      51     253      23      45     198 dem        NA
    ## 10  1947 October        23      51     253      23      45     198 dem        NA
    ## # … with 812 more rows, and abbreviated variable name ¹​president

``` r
merge_all = 
  left_join(merge_pols_snp, unemployment, by = c("year", "month"))
merge_all
```

    ## # A tibble: 822 × 11
    ##     year month     gov_gop sen_gop rep_gop gov_dem sen_dem rep_dem presi…¹ close
    ##    <dbl> <chr>       <dbl>   <dbl>   <dbl>   <dbl>   <dbl>   <dbl> <chr>   <dbl>
    ##  1  1947 January        23      51     253      23      45     198 dem        NA
    ##  2  1947 February       23      51     253      23      45     198 dem        NA
    ##  3  1947 March          23      51     253      23      45     198 dem        NA
    ##  4  1947 April          23      51     253      23      45     198 dem        NA
    ##  5  1947 May            23      51     253      23      45     198 dem        NA
    ##  6  1947 June           23      51     253      23      45     198 dem        NA
    ##  7  1947 July           23      51     253      23      45     198 dem        NA
    ##  8  1947 August         23      51     253      23      45     198 dem        NA
    ##  9  1947 September      23      51     253      23      45     198 dem        NA
    ## 10  1947 October        23      51     253      23      45     198 dem        NA
    ## # … with 812 more rows, 1 more variable: percentage <dbl>, and abbreviated
    ## #   variable name ¹​president
…
